{
  "project_info": {
    "project_number": "75879611480",
    "firebase_url": "https://kidswatcher-russia.firebaseio.com",
    "project_id": "kidswatcher-russia",
    "storage_bucket": "kidswatcher-russia.appspot.com"
  },
  "client": [
    {
      "client_info": {
        "mobilesdk_app_id": "1:75879611480:android:afd3b6e45d5c6d97",
        "android_client_info": {
          "package_name": "com.qiwo.xkidswatcher_russia"
        }
      },
      "oauth_client": [
        {
          "client_id": "75879611480-mlfp9b01nk02mrrl0gdd213t7dnblv4a.apps.googleusercontent.com",
          "client_type": 1,
          "android_info": {
            "package_name": "com.qiwo.xkidswatcher_russia",
            "certificate_hash": "b685f1df738c1e59f7f644f79ad38c09f673fdb0"
          }
        },
        {
          "client_id": "75879611480-0044agkrkuihb7915qpktthems2opdp7.apps.googleusercontent.com",
          "client_type": 3
        }
      ],
      "api_key": [
        {
          "current_key": "AIzaSyD_tlA_L8cxvq-eF35LqwhVlC-Wn0-WHyg"
        }
      ],
      "services": {
        "analytics_service": {
          "status": 1
        },
        "appinvite_service": {
          "status": 2,
          "other_platform_oauth_client": [
            {
              "client_id": "75879611480-0044agkrkuihb7915qpktthems2opdp7.apps.googleusercontent.com",
              "client_type": 3
            }
          ]
        },
        "ads_service": {
          "status": 2
        }
      }
    }
  ],
  "configuration_version": "1"
}