{
    "error": 0, 
    "message": "Success", 
    "data": [
        {			
            "content_type": 1,
			"msg_id":1000,
			"content_type_text": "Recording", 
			"time": 1428586413, 
			"content": "Baby is at Qiwo Rd, Qiwo City", 
			"parameter": {
				"voice_id": "111111111", 
				"location": {"longitude":114.024,"latitude":22.631},
				"location_time": 1428586413, 
				"location_type": "gps",
				"des": ""
			}
        },
        {			
            "content_type": 20,
			"msg_id":1000,
			"content_type_text": "Location", 
			"time": 1428586413, 
			"content": "Baby is at Qiwo Rd, Qiwo City", 
			"parameter": {
				"location": {"longitude":114.024,"latitude":22.631},
				"location_time": 1428586413, 
				"location_type": "gps",
				"des": "Baby is staying at Qiwo Rd,Qiwo City for 1H 30M"
			}
        },
        {			
            "content_type": 21,
			"msg_id":1000,
			"content_type_text": "Low Battery Notification", 
			"time": 1428586413, 
			"content": "Battery remains only 5%", 
			"parameter": {
				"location": {"longitude":114.024,"latitude":22.631},
				"location_time": 1428586413, 
				"location_type": "gps",
				"des": "Battery remains only 5%,Please recharge"
			}
        },
        {			
            "content_type": 23,
			"msg_id":1000,
			"content_type_text": "SOS Alert", 
			"time": 1428586413, 
			"content": "Baby has sent out a SOS alert", 
			"parameter": {
				"location": {"longitude":114.024,"latitude":22.631},
				"location_time": 1428586413, 
				"location_type": "gps",
				"des": "Baby has sent out a SOS alert,Please confirm the safety of your kid"
			}
        },
        {			
            "content_type": 24,
			"msg_id":1000,
			"content_type_text": "Arriving Notification", 
			"time": 1428586413, 
			"content": "Baby is arriving Teacher's Home", 
			"parameter": {
				"location": {"longitude":114.024,"latitude":22.631},
				"location_time": 1428586413, 
				"location_type": "gps",
				"des": "Baby is arriving Teacher's Home"
			}
        },
        {			
            "content_type": 25,
			"msg_id":1000,
			"content_type_text": "Unknown Area Warning", 
			"time": 1428586413, 
			"content": "Baby is staying at Qiwo Rd,Qiwo City", 
			"parameter": {
				"location": {"longitude":114.024,"latitude":22.631},
				"location_time": 1428586413, 
				"location_type": "gps",
				"des": "Baby is staying at Qiwo Rd,Qiwo City"
			}
        }
    ]
}
